<?xml version="1.0" encoding="UTF-8" standalone="no"?>
<svg width="16px" height="10px" viewBox="0 0 16 10" version="1.1" xmlns="http://www.w3.org/2000/svg" xmlns:xlink="http://www.w3.org/1999/xlink" xmlns:sketch="http://www.bohemiancoding.com/sketch/ns">
    <!-- Generator: Sketch 3.4.4 (17249) - http://www.bohemiancoding.com/sketch -->
    <title>white-arrow</title>
    <desc>Created with Sketch.</desc>
    <defs></defs>
    <g id="Page-1" stroke="none" stroke-width="1" fill="none" fill-rule="evenodd" sketch:type="MSPage">
        <g id="white-arrow" sketch:type="MSLayerGroup" transform="translate(8.000000, 5.000000) rotate(-270.000000) translate(-8.000000, -5.000000) translate(3.000000, -3.000000)" fill="#FFFFFF">
            <g id="Page-1" sketch:type="MSShapeGroup">
                <g id="Amtico_Digital_C2.4_Sectors-v2">
                    <path d="M0.3881,13.7944 L6.0481,8.1344 L0.3881,2.4734 L2.1111,0.7514 L9.4941,8.1344 L2.1111,15.5174 L0.3881,13.7944 L0.3881,13.7944 Z" id="Fill-172"></path>
                </g>
            </g>
        </g>
    </g>
</svg>