"Timestamp","Message"
"21/03/2017 11:01:00","Caroline Boudet (cboudet@gdha.com) saved the following content: 27005 (-1,1839,14184,14185,14461,27005 SEB600FV at http://www.stoves.co.uk/products/cooking/built-in-ovens/seb600fv/)"
"21/03/2017 11:01:01","Caroline Boudet (cboudet@gdha.com) published the following content: 27005 (-1,1839,14184,14185,14461,27005 SEB600FV at http://www.stoves.co.uk/products/cooking/built-in-ovens/seb600fv/)"
"21/03/2017 11:01:21","Caroline Boudet (cboudet@gdha.com) saved the following content: 27005 (-1,1839,14184,14185,14461,27005 SEB600FV at http://www.stoves.co.uk/products/cooking/built-in-ovens/seb600fv/)"
"21/03/2017 11:01:21","Caroline Boudet (cboudet@gdha.com) published the following content: 27005 (-1,1839,14184,14185,14461,27005 SEB600FV at http://www.stoves.co.uk/products/cooking/built-in-ovens/seb600fv/)"
"21/03/2017 11:07:00","Caroline Boudet (cboudet@gdha.com) saved the following content: 27005 (-1,1839,14184,14185,14461,27005 SEB600FV at http://www.stoves.co.uk/products/cooking/built-in-ovens/seb600fv/)"
"21/03/2017 11:07:01","Caroline Boudet (cboudet@gdha.com) published the following content: 27005 (-1,1839,14184,14185,14461,27005 SEB600FV at http://www.stoves.co.uk/products/cooking/built-in-ovens/seb600fv/)"
"21/03/2017 11:12:15","Caroline Boudet (cboudet@gdha.com) saved the following content: 27005 (-1,1839,14184,14185,14461,27005 SEB600FV at http://www.stoves.co.uk/products/cooking/built-in-ovens/seb600fv/)"
"21/03/2017 11:12:16","Caroline Boudet (cboudet@gdha.com) published the following content: 27005 (-1,1839,14184,14185,14461,27005 SEB600FV at http://www.stoves.co.uk/products/cooking/built-in-ovens/seb600fv/)"
"21/03/2017 11:13:12","Caroline Boudet (cboudet@gdha.com) saved the following content: 14534 (-1,1839,14184,14185,14461,14462,14530,14534 No of shelves at http://www.stoves.co.uk/products/cooking/built-in-ovens/product-features/main-cavity-features/no-of-shelves/)"
"21/03/2017 11:13:12","Caroline Boudet (cboudet@gdha.com) published the following content: 14534 (-1,1839,14184,14185,14461,14462,14530,14534 No of shelves at http://www.stoves.co.uk/products/cooking/built-in-ovens/product-features/main-cavity-features/no-of-shelves/)"
"21/03/2017 11:13:59","Caroline Boudet (cboudet@gdha.com) saved the following content: 27005 (-1,1839,14184,14185,14461,27005 SEB600FV at http://www.stoves.co.uk/products/cooking/built-in-ovens/seb600fv/)"
"21/03/2017 11:13:59","Caroline Boudet (cboudet@gdha.com) published the following content: 27005 (-1,1839,14184,14185,14461,27005 SEB600FV at http://www.stoves.co.uk/products/cooking/built-in-ovens/seb600fv/)"
"21/03/2017 11:18:33","Caroline Boudet (cboudet@gdha.com) saved the following content: 14658 (-1,1839,14184,14185,14461,14658 SGB600MFSE at http://www.stoves.co.uk/products/cooking/built-in-ovens/sgb600mfse/)"
"21/03/2017 11:18:33","Caroline Boudet (cboudet@gdha.com) published the following content: 14658 (-1,1839,14184,14185,14461,14658 SGB600MFSE at http://www.stoves.co.uk/products/cooking/built-in-ovens/sgb600mfse/)"
"21/03/2017 11:19:07","Caroline Boudet (cboudet@gdha.com) created 0 (-1,1839,14184,14185,14461,14462,14593,0  at Unknown URL)"
"21/03/2017 11:20:09","Caroline Boudet (cboudet@gdha.com) created 0 (-1,1839,14184,14185,14461,14462,14593,0  at Unknown URL)"
"21/03/2017 11:20:23","Caroline Boudet (cboudet@gdha.com) saved the following content: 27115 (-1,1839,14184,14185,14461,14462,14593,27115 Light only at Unknown URL)"
"21/03/2017 11:20:23","Caroline Boudet (cboudet@gdha.com) published the following content: 27115 (-1,1839,14184,14185,14461,14462,14593,27115 Light only at Unknown URL)"
"21/03/2017 11:20:28","Caroline Boudet (cboudet@gdha.com) saved the following content: 27115 (-1,1839,14184,14185,14461,14462,14593,27115 Light only at http://www.stoves.co.uk/products/cooking/built-in-ovens/product-features/main-cavity-gas-ovengrill/light-only/)"
"21/03/2017 11:20:28","Caroline Boudet (cboudet@gdha.com) published the following content: 27115 (-1,1839,14184,14185,14461,14462,14593,27115 Light only at http://www.stoves.co.uk/products/cooking/built-in-ovens/product-features/main-cavity-gas-ovengrill/light-only/)"
"21/03/2017 11:20:47","Caroline Boudet (cboudet@gdha.com) saved the following content: 14658 (-1,1839,14184,14185,14461,14658 SGB600MFSE at http://www.stoves.co.uk/products/cooking/built-in-ovens/sgb600mfse/)"
"21/03/2017 11:20:47","Caroline Boudet (cboudet@gdha.com) published the following content: 14658 (-1,1839,14184,14185,14461,14658 SGB600MFSE at http://www.stoves.co.uk/products/cooking/built-in-ovens/sgb600mfse/)"
"21/03/2017 11:27:43","Caroline Boudet (cboudet@gdha.com) created 0 (-1,1839,14184,14185,14461,14462,0  at Unknown URL)"
"21/03/2017 11:29:22","Caroline Boudet (cboudet@gdha.com) created 0 (-1,1839,14184,14185,14461,0  at Unknown URL)"
"21/03/2017 11:33:34","Caroline Boudet (cboudet@gdha.com) saved the following content: 27116 (-1,1839,14184,14185,14461,27116 STRICH600MF at Unknown URL)"
"21/03/2017 11:33:34","Caroline Boudet (cboudet@gdha.com) published the following content: 27116 (-1,1839,14184,14185,14461,27116 STRICH600MF at Unknown URL)"
"21/03/2017 11:33:43","Caroline Boudet (cboudet@gdha.com) created 0 (-1,1839,14184,14185,14461,27116,0  at Unknown URL)"
"21/03/2017 11:34:09","Caroline Boudet (cboudet@gdha.com) saved the following content: 27117 (-1,1839,14184,14185,14461,27116,27117 444444381 at Unknown URL)"
"21/03/2017 11:34:09","Caroline Boudet (cboudet@gdha.com) published the following content: 27117 (-1,1839,14184,14185,14461,27116,27117 444444381 at Unknown URL)"
"21/03/2017 11:34:32","Caroline Boudet (cboudet@gdha.com) created 0 (-1,1839,14184,14185,14461,27116,0  at Unknown URL)"
"21/03/2017 11:34:37","Caroline Boudet (cboudet@gdha.com) saved the following content: 27118 (-1,1839,14184,14185,14461,27116,27118 444444378 at Unknown URL)"
"21/03/2017 11:34:37","Caroline Boudet (cboudet@gdha.com) published the following content: 27118 (-1,1839,14184,14185,14461,27116,27118 444444378 at Unknown URL)"
"21/03/2017 11:34:49","Caroline Boudet (cboudet@gdha.com) created 0 (-1,1839,14184,14185,14461,27116,0  at Unknown URL)"
"21/03/2017 11:34:53","Caroline Boudet (cboudet@gdha.com) saved the following content: 27119 (-1,1839,14184,14185,14461,27116,27119 444444377 at Unknown URL)"
"21/03/2017 11:34:54","Caroline Boudet (cboudet@gdha.com) published the following content: 27119 (-1,1839,14184,14185,14461,27116,27119 444444377 at Unknown URL)"
"21/03/2017 11:35:33","Caroline Boudet (cboudet@gdha.com) created new media item: 0 (-1,0 STRich600MF_CRM_444444381-hires.jpg at Unknown URL)"
"21/03/2017 11:35:34","Caroline Boudet (cboudet@gdha.com) saved the following media item: 27120 (-1,27120 STRich600MF_CRM_444444381-hires.jpg at /media/663513/strich600mf_crm_444444381-hires.jpg)"
"21/03/2017 11:36:03","Caroline Boudet (cboudet@gdha.com) created new media item: 0 (-1,0 STRich600MF_CRM_444444381C-hires.jpg at Unknown URL)"
"21/03/2017 11:36:03","Caroline Boudet (cboudet@gdha.com) saved the following media item: 27121 (-1,27121 STRich600MF_CRM_444444381C-hires.jpg at /media/663514/strich600mf_crm_444444381c-hires.jpg)"
"21/03/2017 11:36:04","Caroline Boudet (cboudet@gdha.com) created new media item: 0 (-1,0 STRich600MF_CRM_444444381F-hires.jpg at Unknown URL)"
"21/03/2017 11:36:04","Caroline Boudet (cboudet@gdha.com) saved the following media item: 27122 (-1,27122 STRich600MF_CRM_444444381F-hires.jpg at /media/663515/strich600mf_crm_444444381f-hires.jpg)"
"21/03/2017 11:36:24","Caroline Boudet (cboudet@gdha.com) created new media item: 0 (-1,0 Rich600MF_RED_444444378-hires.jpg at Unknown URL)"
"21/03/2017 11:36:24","Caroline Boudet (cboudet@gdha.com) saved the following media item: 27123 (-1,27123 Rich600MF_RED_444444378-hires.jpg at /media/663516/rich600mf_red_444444378-hires.jpg)"
"21/03/2017 11:36:58","Caroline Boudet (cboudet@gdha.com) created new media item: 0 (-1,0 Rich600MF_RED_444444378O-hires.jpg at Unknown URL)"
"21/03/2017 11:36:59","Caroline Boudet (cboudet@gdha.com) saved the following media item: 27124 (-1,27124 Rich600MF_RED_444444378O-hires.jpg at /media/663517/rich600mf_red_444444378o-hires.jpg)"
"21/03/2017 11:37:00","Caroline Boudet (cboudet@gdha.com) created new media item: 0 (-1,0 Rich600MF_RED_444444378T-hires.jpg at Unknown URL)"
"21/03/2017 11:37:00","Caroline Boudet (cboudet@gdha.com) saved the following media item: 27125 (-1,27125 Rich600MF_RED_444444378T-hires.jpg at /media/663518/rich600mf_red_444444378t-hires.jpg)"
"21/03/2017 11:37:24","Caroline Boudet (cboudet@gdha.com) created new media item: 0 (-1,0 ST_Rich_600MF_STA_444444377-hires.jpg at Unknown URL)"
"21/03/2017 11:37:24","Caroline Boudet (cboudet@gdha.com) saved the following media item: 27126 (-1,27126 ST_Rich_600MF_STA_444444377-hires.jpg at /media/663519/st_rich_600mf_sta_444444377-hires.jpg)"
"21/03/2017 11:38:06","Caroline Boudet (cboudet@gdha.com) created new media item: 0 (-1,0 ST_Rich_600MF_STA_444444377_D -hires.jpg at Unknown URL)"
"21/03/2017 11:38:06","Caroline Boudet (cboudet@gdha.com) saved the following media item: 27127 (-1,27127 ST_Rich_600MF_STA_444444377_D -hires.jpg at /media/663520/st_rich_600mf_sta_444444377_d-hires.jpg)"
"21/03/2017 11:38:07","Caroline Boudet (cboudet@gdha.com) created new media item: 0 (-1,0 ST_Rich_600MF_STA_444444377_D2-hires.jpg at Unknown URL)"
"21/03/2017 11:38:07","Caroline Boudet (cboudet@gdha.com) saved the following media item: 27128 (-1,27128 ST_Rich_600MF_STA_444444377_D2-hires.jpg at /media/663521/st_rich_600mf_sta_444444377_d2-hires.jpg)"
"21/03/2017 11:38:10","Caroline Boudet (cboudet@gdha.com) created new media item: 0 (-1,0 ST_Rich_600MF_STA_444444377_G2-hires.jpg at Unknown URL)"
"21/03/2017 11:38:10","Caroline Boudet (cboudet@gdha.com) saved the following media item: 27129 (-1,27129 ST_Rich_600MF_STA_444444377_G2-hires.jpg at /media/663522/st_rich_600mf_sta_444444377_g2-hires.jpg)"
"21/03/2017 11:39:16","Caroline Boudet (cboudet@gdha.com) created new media item: 0 (-1,0 Bi Richmond Hobs Handbook.pdf at Unknown URL)"
"21/03/2017 11:39:16","Caroline Boudet (cboudet@gdha.com) saved the following media item: 27130 (-1,27130 Bi Richmond Hobs Handbook.pdf at /media/663523/bi-richmond-hobs-handbook.pdf)"
"21/03/2017 11:39:16","Caroline Boudet (cboudet@gdha.com) created new media item: 0 (-1,0 INSTALLATION GUIDE 35696 BUILT IN UK AU.pdf at Unknown URL)"
"21/03/2017 11:39:16","Caroline Boudet (cboudet@gdha.com) saved the following media item: 27131 (-1,27131 INSTALLATION GUIDE 35696 BUILT IN UK AU.pdf at /media/663524/installation-guide-35696-built-in-uk-au.pdf)"
"21/03/2017 11:39:16","Caroline Boudet (cboudet@gdha.com) created new media item: 0 (-1,0 Bi Richmond Ovens Handbook.pdf at Unknown URL)"
"21/03/2017 11:39:16","Caroline Boudet (cboudet@gdha.com) saved the following media item: 27132 (-1,27132 Bi Richmond Ovens Handbook.pdf at /media/663525/bi-richmond-ovens-handbook.pdf)"
"21/03/2017 11:39:32","Shoot The Moon (steven@shoot-the-moon.co.uk) copied content from 27096 (-1,1837,1986,27096 Why Buy Range Cookers at /why-buy/why-buy-range-cookers/) to 27133 (-1,1837,27133 Why Buy Range Cookers at Unknown URL)"
"21/03/2017 11:39:56","Caroline Boudet (cboudet@gdha.com) saved the following content: 27117 (-1,1839,14184,14185,14461,27116,27117 444444381 at http://www.stoves.co.uk/products/cooking/built-in-ovens/strich600mf/444444381/)"
"21/03/2017 11:39:56","Caroline Boudet (cboudet@gdha.com) published the following content: 27117 (-1,1839,14184,14185,14461,27116,27117 444444381 at http://www.stoves.co.uk/products/cooking/built-in-ovens/strich600mf/444444381/)"
"21/03/2017 11:40:04","Caroline Boudet (cboudet@gdha.com) saved the following content: 27117 (-1,1839,14184,14185,14461,27116,27117 444444381 at http://www.stoves.co.uk/products/cooking/built-in-ovens/strich600mf/444444381/)"
"21/03/2017 11:40:04","Caroline Boudet (cboudet@gdha.com) published the following content: 27117 (-1,1839,14184,14185,14461,27116,27117 444444381 at http://www.stoves.co.uk/products/cooking/built-in-ovens/strich600mf/444444381/)"
"21/03/2017 11:40:22","Shoot The Moon (steven@shoot-the-moon.co.uk) saved the following content: 27133 (-1,1837,27133 Cashback at Unknown URL)"
"21/03/2017 11:40:27","Shoot The Moon (steven@shoot-the-moon.co.uk) saved the following content: 27133 (-1,1837,27133 Cashback at Unknown URL)"
"21/03/2017 11:41:34","Caroline Boudet (cboudet@gdha.com) saved the following content: 27118 (-1,1839,14184,14185,14461,27116,27118 444444378 at http://www.stoves.co.uk/products/cooking/built-in-ovens/strich600mf/444444378/)"
"21/03/2017 11:41:35","Caroline Boudet (cboudet@gdha.com) published the following content: 27118 (-1,1839,14184,14185,14461,27116,27118 444444378 at http://www.stoves.co.uk/products/cooking/built-in-ovens/strich600mf/444444378/)"
"21/03/2017 11:42:01","Caroline Boudet (cboudet@gdha.com) saved the following content: 27119 (-1,1839,14184,14185,14461,27116,27119 444444377 at http://www.stoves.co.uk/products/cooking/built-in-ovens/strich600mf/444444377/)"
"21/03/2017 11:42:01","Caroline Boudet (cboudet@gdha.com) published the following content: 27119 (-1,1839,14184,14185,14461,27116,27119 444444377 at http://www.stoves.co.uk/products/cooking/built-in-ovens/strich600mf/444444377/)"
"21/03/2017 11:42:19","Shoot The Moon (steven@shoot-the-moon.co.uk) created 0 (-1,1837,27133,0  at Unknown URL)"
"21/03/2017 11:42:27","Caroline Boudet (cboudet@gdha.com) saved the following content: 27116 (-1,1839,14184,14185,14461,27116 STRICH600MF at http://www.stoves.co.uk/products/cooking/built-in-ovens/strich600mf/)"
"21/03/2017 11:42:28","Caroline Boudet (cboudet@gdha.com) published the following content: 27116 (-1,1839,14184,14185,14461,27116 STRICH600MF at http://www.stoves.co.uk/products/cooking/built-in-ovens/strich600mf/)"
"21/03/2017 11:43:24","Shoot The Moon (steven@shoot-the-moon.co.uk) created 0 (-1,1837,27133,0  at Unknown URL)"
"21/03/2017 11:43:38","Shoot The Moon (steven@shoot-the-moon.co.uk) saved the following content: 27134 (-1,1837,27133,27134 Washing Machines at Unknown URL)"
"21/03/2017 11:43:52","Shoot The Moon (steven@shoot-the-moon.co.uk) saved the following content: 27134 (-1,1837,27133,27134 Washing Machines at Unknown URL)"
"21/03/2017 11:44:06","Shoot The Moon (steven@shoot-the-moon.co.uk) saved the following content: 27134 (-1,1837,27133,27134 Washing Machines at Unknown URL)"
"21/03/2017 11:44:20","Shoot The Moon (steven@shoot-the-moon.co.uk) copied content from 27134 (-1,1837,27133,27134 Washing Machines at Unknown URL) to 27135 (-1,1837,27133,27135 Washing Machines (1) at Unknown URL)"
"21/03/2017 11:44:38","Shoot The Moon (steven@shoot-the-moon.co.uk) saved the following content: 27135 (-1,1837,27133,27135 Tumble Driers at Unknown URL)"
"21/03/2017 11:44:47","Shoot The Moon (steven@shoot-the-moon.co.uk) saved the following content: 27134 (-1,1837,27133,27134 Washing Machines at Unknown URL)"
"21/03/2017 11:45:05","Shoot The Moon (steven@shoot-the-moon.co.uk) copied content from 27135 (-1,1837,27133,27135 Tumble Driers at Unknown URL) to 27136 (-1,1837,27133,27136 Tumble Driers (1) at Unknown URL)"
"21/03/2017 11:45:18","Shoot The Moon (steven@shoot-the-moon.co.uk) saved the following content: 27136 (-1,1837,27133,27136 Washer Driers at Unknown URL)"
"21/03/2017 11:45:32","Shoot The Moon (steven@shoot-the-moon.co.uk) copied content from 27136 (-1,1837,27133,27136 Washer Driers at Unknown URL) to 27137 (-1,1837,27133,27137 Washer Driers (1) at Unknown URL)"
"21/03/2017 11:45:43","Shoot The Moon (steven@shoot-the-moon.co.uk) saved the following content: 27137 (-1,1837,27133,27137 Dishwasher at Unknown URL)"
"21/03/2017 11:46:26","Shoot The Moon (steven@shoot-the-moon.co.uk) saved the following content: 27137 (-1,1837,27133,27137 Dishwasher at Unknown URL)"
"21/03/2017 11:47:12","Caroline Boudet (cboudet@gdha.com) saved the following content: 27116 (-1,1839,14184,14185,14461,27116 STRICH600MF at http://www.stoves.co.uk/products/cooking/built-in-ovens/strich600mf/)"
"21/03/2017 11:47:12","Caroline Boudet (cboudet@gdha.com) published the following content: 27116 (-1,1839,14184,14185,14461,27116 STRICH600MF at http://www.stoves.co.uk/products/cooking/built-in-ovens/strich600mf/)"
"21/03/2017 11:48:14","Caroline Boudet (cboudet@gdha.com) saved the following content: 27116 (-1,1839,14184,14185,14461,27116 STRICH600MF at http://www.stoves.co.uk/products/cooking/built-in-ovens/strich600mf/)"
"21/03/2017 11:48:14","Caroline Boudet (cboudet@gdha.com) published the following content: 27116 (-1,1839,14184,14185,14461,27116 STRICH600MF at http://www.stoves.co.uk/products/cooking/built-in-ovens/strich600mf/)"
"21/03/2017 11:49:57","Caroline Boudet (cboudet@gdha.com) saved the following content: 27116 (-1,1839,14184,14185,14461,27116 STRICH600MF at http://www.stoves.co.uk/products/cooking/built-in-ovens/strich600mf/)"
"21/03/2017 11:49:58","Caroline Boudet (cboudet@gdha.com) published the following content: 27116 (-1,1839,14184,14185,14461,27116 STRICH600MF at http://www.stoves.co.uk/products/cooking/built-in-ovens/strich600mf/)"
"21/03/2017 11:50:21","Caroline Boudet (cboudet@gdha.com) saved the following content: 27116 (-1,1839,14184,14185,14461,27116 STRICH600MF at http://www.stoves.co.uk/products/cooking/built-in-ovens/strich600mf/)"
"21/03/2017 11:50:21","Caroline Boudet (cboudet@gdha.com) published the following content: 27116 (-1,1839,14184,14185,14461,27116 STRICH600MF at http://www.stoves.co.uk/products/cooking/built-in-ovens/strich600mf/)"
"21/03/2017 11:52:22","Caroline Boudet (cboudet@gdha.com) created 0 (-1,1839,14184,14185,14461,14462,14571,0  at Unknown URL)"
"21/03/2017 11:52:43","Caroline Boudet (cboudet@gdha.com) saved the following content: 27138 (-1,1839,14184,14185,14461,14462,14571,27138 Pizza Setting at Unknown URL)"
"21/03/2017 11:52:43","Caroline Boudet (cboudet@gdha.com) published the following content: 27138 (-1,1839,14184,14185,14461,14462,14571,27138 Pizza Setting at Unknown URL)"
"21/03/2017 11:53:40","Caroline Boudet (cboudet@gdha.com) saved the following content: 14539 (-1,1839,14184,14185,14461,14462,14530,14539 Interior finish at http://www.stoves.co.uk/products/cooking/built-in-ovens/product-features/main-cavity-features/interior-finish/)"
"21/03/2017 11:53:41","Caroline Boudet (cboudet@gdha.com) published the following content: 14539 (-1,1839,14184,14185,14461,14462,14530,14539 Interior finish at http://www.stoves.co.uk/products/cooking/built-in-ovens/product-features/main-cavity-features/interior-finish/)"
"21/03/2017 11:54:33","Caroline Boudet (cboudet@gdha.com) saved the following content: 14548 (-1,1839,14184,14185,14461,14462,14544,14548 LED clock/programmer at http://www.stoves.co.uk/products/cooking/built-in-ovens/product-features/timer/led-clockprogrammer/)"
"21/03/2017 11:54:33","Caroline Boudet (cboudet@gdha.com) published the following content: 14548 (-1,1839,14184,14185,14461,14462,14544,14548 LED clock/programmer at http://www.stoves.co.uk/products/cooking/built-in-ovens/product-features/timer/led-clockprogrammer/)"
"21/03/2017 11:55:19","Caroline Boudet (cboudet@gdha.com) saved the following content: 14540 (-1,1839,14184,14185,14461,14462,14530,14540 Door type at http://www.stoves.co.uk/products/cooking/built-in-ovens/product-features/main-cavity-features/door-type/)"
"21/03/2017 11:55:19","Caroline Boudet (cboudet@gdha.com) published the following content: 14540 (-1,1839,14184,14185,14461,14462,14530,14540 Door type at http://www.stoves.co.uk/products/cooking/built-in-ovens/product-features/main-cavity-features/door-type/)"
"21/03/2017 11:56:15","Caroline Boudet (cboudet@gdha.com) saved the following content: 14542 (-1,1839,14184,14185,14461,14462,14530,14542 Door opening at http://www.stoves.co.uk/products/cooking/built-in-ovens/product-features/main-cavity-features/door-opening/)"
"21/03/2017 11:56:15","Caroline Boudet (cboudet@gdha.com) published the following content: 14542 (-1,1839,14184,14185,14461,14462,14530,14542 Door opening at http://www.stoves.co.uk/products/cooking/built-in-ovens/product-features/main-cavity-features/door-opening/)"
"21/03/2017 11:56:30","Caroline Boudet (cboudet@gdha.com) saved the following content: 14542 (-1,1839,14184,14185,14461,14462,14530,14542 Door opening at http://www.stoves.co.uk/products/cooking/built-in-ovens/product-features/main-cavity-features/door-opening/)"
"21/03/2017 11:56:30","Caroline Boudet (cboudet@gdha.com) published the following content: 14542 (-1,1839,14184,14185,14461,14462,14530,14542 Door opening at http://www.stoves.co.uk/products/cooking/built-in-ovens/product-features/main-cavity-features/door-opening/)"
"21/03/2017 11:56:43","Shoot The Moon (steven@shoot-the-moon.co.uk) saved the following content: 27134 (-1,1837,27133,27134 Washing Machines at Unknown URL)"
"21/03/2017 11:57:21","Caroline Boudet (cboudet@gdha.com) saved the following content: 14560 (-1,1839,14184,14185,14461,14462,14554,14560 Supply voltage at http://www.stoves.co.uk/products/cooking/built-in-ovens/product-features/installation/supply-voltage/)"
"21/03/2017 11:57:21","Caroline Boudet (cboudet@gdha.com) published the following content: 14560 (-1,1839,14184,14185,14461,14462,14554,14560 Supply voltage at http://www.stoves.co.uk/products/cooking/built-in-ovens/product-features/installation/supply-voltage/)"
"21/03/2017 11:59:37","Caroline Boudet (cboudet@gdha.com) saved the following content: 27116 (-1,1839,14184,14185,14461,27116 STRICH600MF at http://www.stoves.co.uk/products/cooking/built-in-ovens/strich600mf/)"
"21/03/2017 11:59:38","Caroline Boudet (cboudet@gdha.com) published the following content: 27116 (-1,1839,14184,14185,14461,27116 STRICH600MF at http://www.stoves.co.uk/products/cooking/built-in-ovens/strich600mf/)"
"21/03/2017 11:59:59","Caroline Boudet (cboudet@gdha.com) saved the following content: 27116 (-1,1839,14184,14185,14461,27116 STRICH600MF at http://www.stoves.co.uk/products/cooking/built-in-ovens/strich600mf/)"
"21/03/2017 11:59:59","Caroline Boudet (cboudet@gdha.com) published the following content: 27116 (-1,1839,14184,14185,14461,27116 STRICH600MF at http://www.stoves.co.uk/products/cooking/built-in-ovens/strich600mf/)"
"21/03/2017 12:01:56","Caroline Boudet (cboudet@gdha.com) saved the following content: 27116 (-1,1839,14184,14185,14461,27116 STRICH600MF at http://www.stoves.co.uk/products/cooking/built-in-ovens/strich600mf/)"
"21/03/2017 12:01:56","Caroline Boudet (cboudet@gdha.com) published the following content: 27116 (-1,1839,14184,14185,14461,27116 STRICH600MF at http://www.stoves.co.uk/products/cooking/built-in-ovens/strich600mf/)"
"21/03/2017 12:04:01","Caroline Boudet (cboudet@gdha.com) created new media item: 0 (-1,0 ST_Rich_600GH_BLK_444444400-hires.jpg at Unknown URL)"
"21/03/2017 12:04:01","Caroline Boudet (cboudet@gdha.com) saved the following media item: 27139 (-1,27139 ST_Rich_600GH_BLK_444444400-hires.jpg at /media/663526/st_rich_600gh_blk_444444400-hires.jpg)"
"21/03/2017 12:04:02","Caroline Boudet (cboudet@gdha.com) created new media item: 0 (-1,0 ST_Rich_600GH_STA_444444397-hires.jpg at Unknown URL)"
"21/03/2017 12:04:02","Caroline Boudet (cboudet@gdha.com) saved the following media item: 27140 (-1,27140 ST_Rich_600GH_STA_444444397-hires.jpg at /media/663527/st_rich_600gh_sta_444444397-hires.jpg)"
"21/03/2017 12:04:02","Caroline Boudet (cboudet@gdha.com) created new media item: 0 (-1,0 ST_Rich_700GH_CRM_444444411-hires.jpg at Unknown URL)"
"21/03/2017 12:04:03","Caroline Boudet (cboudet@gdha.com) saved the following media item: 27141 (-1,27141 ST_Rich_700GH_CRM_444444411-hires.jpg at /media/663528/st_rich_700gh_crm_444444411-hires.jpg)"
"21/03/2017 12:04:22","Caroline Boudet (cboudet@gdha.com) created new media item: 0 (-1,0 ST_Rich_600GH_CRM_444444401-hires.jpg at Unknown URL)"
"21/03/2017 12:04:22","Caroline Boudet (cboudet@gdha.com) saved the following media item: 27142 (-1,27142 ST_Rich_600GH_CRM_444444401-hires.jpg at /media/663529/st_rich_600gh_crm_444444401-hires.jpg)"
"21/03/2017 12:04:56","Caroline Boudet (cboudet@gdha.com) created new media item: 0 (-1,0 ST_Rich_700GH_STA_444444407-hires.jpg at Unknown URL)"
"21/03/2017 12:04:56","Caroline Boudet (cboudet@gdha.com) saved the following media item: 27143 (-1,27143 ST_Rich_700GH_STA_444444407-hires.jpg at /media/663530/st_rich_700gh_sta_444444407-hires.jpg)"
"21/03/2017 12:05:08","Caroline Boudet (cboudet@gdha.com) created new media item: 0 (-1,0 ST_Rich_700GH_BLK_444444410-hires.jpg at Unknown URL)"
"21/03/2017 12:05:08","Caroline Boudet (cboudet@gdha.com) saved the following media item: 27144 (-1,27144 ST_Rich_700GH_BLK_444444410-hires.jpg at /media/663531/st_rich_700gh_blk_444444410-hires.jpg)"
"21/03/2017 13:36:17","Alexandra Davies (adavies@gdha.com) saved the following content: 2127 (-1,1839,2127 Contact at http://www.stoves.co.uk/contact/)"
"21/03/2017 13:36:17","Alexandra Davies (adavies@gdha.com) published the following content: 2127 (-1,1839,2127 Contact at http://www.stoves.co.uk/contact/)"
"21/03/2017 13:36:41","Alexandra Davies (adavies@gdha.com) saved the following content: 1915 (-1,1903,1910,1915 Global Settings at /stoves/global-settings/)"
"21/03/2017 13:36:41","Alexandra Davies (adavies@gdha.com) published the following content: 1915 (-1,1903,1910,1915 Global Settings at /stoves/global-settings/)"
"21/03/2017 13:37:19","Alexandra Davies (adavies@gdha.com) saved the following content: 2257 (-1,1903,1911,2257 Global Settings at /belling/global-settings/)"
"21/03/2017 13:37:19","Alexandra Davies (adavies@gdha.com) published the following content: 2257 (-1,1903,1911,2257 Global Settings at /belling/global-settings/)"
"21/03/2017 13:37:39","Alexandra Davies (adavies@gdha.com) saved the following content: 1863 (-1,1837,1863 Contact at /contact/)"
"21/03/2017 13:37:39","Alexandra Davies (adavies@gdha.com) published the following content: 1863 (-1,1837,1863 Contact at /contact/)"
"21/03/2017 13:37:57","Alexandra Davies (adavies@gdha.com) saved the following content: 2202 (-1,1843,2202 Contact at http://newworld.co.uk/contact/)"
"21/03/2017 13:37:57","Alexandra Davies (adavies@gdha.com) published the following content: 2202 (-1,1843,2202 Contact at http://newworld.co.uk/contact/)"
"21/03/2017 13:38:25","Alexandra Davies (adavies@gdha.com) saved the following content: 1913 (-1,1903,1912,1913 Global Settings at /new-world/global-settings/)"
"21/03/2017 13:38:25","Alexandra Davies (adavies@gdha.com) published the following content: 1913 (-1,1903,1912,1913 Global Settings at /new-world/global-settings/)"
"21/03/2017 13:38:53","Alexandra Davies (adavies@gdha.com) saved the following content: 2171 (-1,1841,2171 Contact at http://www.lec.co.uk/contact/)"
"21/03/2017 13:38:53","Alexandra Davies (adavies@gdha.com) published the following content: 2171 (-1,1841,2171 Contact at http://www.lec.co.uk/contact/)"
"21/03/2017 13:39:20","Alexandra Davies (adavies@gdha.com) saved the following content: 2127 (-1,1839,2127 Contact at http://www.stoves.co.uk/contact/)"
"21/03/2017 13:39:21","Alexandra Davies (adavies@gdha.com) published the following content: 2127 (-1,1839,2127 Contact at http://www.stoves.co.uk/contact/)"
"21/03/2017 13:40:43","Alexandra Davies (adavies@gdha.com) saved the following content: 2171 (-1,1841,2171 Contact at http://www.lec.co.uk/contact/)"
"21/03/2017 13:40:44","Alexandra Davies (adavies@gdha.com) published the following content: 2171 (-1,1841,2171 Contact at http://www.lec.co.uk/contact/)"
"21/03/2017 13:42:09","Alexandra Davies (adavies@gdha.com) saved the following content: 2171 (-1,1841,2171 Contact at http://www.lec.co.uk/contact/)"
"21/03/2017 13:42:09","Alexandra Davies (adavies@gdha.com) published the following content: 2171 (-1,1841,2171 Contact at http://www.lec.co.uk/contact/)"
"21/03/2017 13:42:17","Alexandra Davies (adavies@gdha.com) saved the following content: 2171 (-1,1841,2171 Contact at http://www.lec.co.uk/contact/)"
"21/03/2017 13:42:17","Alexandra Davies (adavies@gdha.com) published the following content: 2171 (-1,1841,2171 Contact at http://www.lec.co.uk/contact/)"
"21/03/2017 13:42:34","Alexandra Davies (adavies@gdha.com) saved the following content: 2127 (-1,1839,2127 Contact at http://www.stoves.co.uk/contact/)"
"21/03/2017 13:42:34","Alexandra Davies (adavies@gdha.com) published the following content: 2127 (-1,1839,2127 Contact at http://www.stoves.co.uk/contact/)"
"21/03/2017 13:42:39","Alexandra Davies (adavies@gdha.com) saved the following content: 2127 (-1,1839,2127 Contact at http://www.stoves.co.uk/contact/)"
"21/03/2017 13:42:39","Alexandra Davies (adavies@gdha.com) published the following content: 2127 (-1,1839,2127 Contact at http://www.stoves.co.uk/contact/)"
"21/03/2017 13:42:59","Alexandra Davies (adavies@gdha.com) saved the following content: 2202 (-1,1843,2202 Contact at http://newworld.co.uk/contact/)"
"21/03/2017 13:42:59","Alexandra Davies (adavies@gdha.com) published the following content: 2202 (-1,1843,2202 Contact at http://newworld.co.uk/contact/)"
"21/03/2017 13:43:03","Alexandra Davies (adavies@gdha.com) saved the following content: 2202 (-1,1843,2202 Contact at http://newworld.co.uk/contact/)"
"21/03/2017 13:43:04","Alexandra Davies (adavies@gdha.com) published the following content: 2202 (-1,1843,2202 Contact at http://newworld.co.uk/contact/)"
"21/03/2017 15:53:18","Natasha Graham (natasha@umpf.com) saved the following content: 27085 (-1,1837,2006,12260,27085 Sandy Docherty's Bolognese at /conversation/recipes/bolognese/)"
"21/03/2017 15:53:18","Natasha Graham (natasha@umpf.com) published the following content: 27085 (-1,1837,2006,12260,27085 Sandy Docherty's Bolognese at /conversation/recipes/bolognese/)"
"21/03/2017 15:56:15","Natasha Graham (natasha@umpf.com) saved the following content: 27085 (-1,1837,2006,12260,27085 Sandy Docherty's Bolognese at /conversation/recipes/sandy-dochertys-bolognese/)"
"21/03/2017 15:56:16","Natasha Graham (natasha@umpf.com) published the following content: 27085 (-1,1837,2006,12260,27085 Sandy Docherty's Bolognese at /conversation/recipes/sandy-dochertys-bolognese/)"
"21/03/2017 15:57:59","Natasha Graham (natasha@umpf.com) saved the following content: 27087 (-1,1837,2006,12260,27087 Sandy Docherty's Paddington Pudding at /conversation/recipes/paddington-pudding/)"
"21/03/2017 15:57:59","Natasha Graham (natasha@umpf.com) published the following content: 27087 (-1,1837,2006,12260,27087 Sandy Docherty's Paddington Pudding at /conversation/recipes/paddington-pudding/)"
"21/03/2017 15:58:24","Natasha Graham (natasha@umpf.com) saved the following content: 27089 (-1,1837,2006,12260,27089 Sandy Docherty's Quick Apple or Pear Open Pie. at /conversation/recipes/quick-apple-or-pear-open-pie/)"
"21/03/2017 15:58:24","Natasha Graham (natasha@umpf.com) published the following content: 27089 (-1,1837,2006,12260,27089 Sandy Docherty's Quick Apple or Pear Open Pie. at /conversation/recipes/quick-apple-or-pear-open-pie/)"
"21/03/2017 15:59:16","Natasha Graham (natasha@umpf.com) saved the following content: 27089 (-1,1837,2006,12260,27089 Sandy Docherty's Quick Apple or Pear Open Pie. at /conversation/recipes/sandy-dochertys-quick-apple-or-pear-open-pie/)"
"21/03/2017 15:59:16","Natasha Graham (natasha@umpf.com) published the following content: 27089 (-1,1837,2006,12260,27089 Sandy Docherty's Quick Apple or Pear Open Pie. at /conversation/recipes/sandy-dochertys-quick-apple-or-pear-open-pie/)"
"21/03/2017 15:59:22","Natasha Graham (natasha@umpf.com) saved the following content: 27089 (-1,1837,2006,12260,27089 Sandy Docherty's Quick Apple or Pear Open Pie. at /conversation/recipes/sandy-dochertys-quick-apple-or-pear-open-pie/)"
"21/03/2017 15:59:23","Natasha Graham (natasha@umpf.com) published the following content: 27089 (-1,1837,2006,12260,27089 Sandy Docherty's Quick Apple or Pear Open Pie. at /conversation/recipes/sandy-dochertys-quick-apple-or-pear-open-pie/)"
"21/03/2017 16:00:59","Natasha Graham (natasha@umpf.com) saved the following content: 27091 (-1,1837,2006,12260,27091 Sandy Docherty's Quickest Tomato Soup Ever at /conversation/recipes/the-quickest-tomato-soup-ever/)"
"21/03/2017 16:01:00","Natasha Graham (natasha@umpf.com) published the following content: 27091 (-1,1837,2006,12260,27091 Sandy Docherty's Quickest Tomato Soup Ever at /conversation/recipes/the-quickest-tomato-soup-ever/)"
"21/03/2017 16:01:05","Natasha Graham (natasha@umpf.com) saved the following content: 27091 (-1,1837,2006,12260,27091 Sandy Docherty's Quickest Tomato Soup Ever at /conversation/recipes/sandy-dochertys-quickest-tomato-soup-ever/)"
"21/03/2017 16:01:05","Natasha Graham (natasha@umpf.com) published the following content: 27091 (-1,1837,2006,12260,27091 Sandy Docherty's Quickest Tomato Soup Ever at /conversation/recipes/sandy-dochertys-quickest-tomato-soup-ever/)"
"21/03/2017 16:02:42","Natasha Graham (natasha@umpf.com) saved the following content: 27093 (-1,1837,2006,12260,27093 Sandy Docherty's Whisky and Ginger Madeira Cake (1) at /conversation/recipes/whisky-and-ginger-madeira-cake/)"
"21/03/2017 16:02:43","Natasha Graham (natasha@umpf.com) published the following content: 27093 (-1,1837,2006,12260,27093 Sandy Docherty's Whisky and Ginger Madeira Cake (1) at /conversation/recipes/whisky-and-ginger-madeira-cake/)"
"21/03/2017 16:03:36","Natasha Graham (natasha@umpf.com) saved the following content: 27095 (-1,1837,2006,12260,27095 Sandy Docherty's Boston Baked Beans at /conversation/recipes/boston-baked-beans/)"
"21/03/2017 16:03:36","Natasha Graham (natasha@umpf.com) published the following content: 27095 (-1,1837,2006,12260,27095 Sandy Docherty's Boston Baked Beans at /conversation/recipes/boston-baked-beans/)"
